<svg width="30" height="30" viewBox="0 0 30 30" fill="none" xmlns="http://www.w3.org/2000/svg">
<rect width="30" height="30" rx="15" transform="matrix(0 1 1 0 0 0)" fill="#00D091"/>
<path d="M9 15L15 21L21 15" stroke="white" stroke-width="2" stroke-linecap="round"/>
<path d="M15 21V8" stroke="white" stroke-width="2" stroke-linecap="round"/>
</svg>
