<svg width="158" height="30" viewBox="0 0 158 30" fill="none" xmlns="http://www.w3.org/2000/svg">
<path fill-rule="evenodd" clip-rule="evenodd" d="M41.9411 29.607V10.7104H49.2202C53.9238 10.7104 56.752 12.6754 56.752 15.9048C56.752 18.0678 55.6034 19.5273 53.8116 20.2007C55.6871 20.7347 56.9479 21.9422 56.9479 24.3287C56.9479 28.0351 53.671 29.607 49.1649 29.607H41.9411ZM46.0301 18.5717H49.4161C51.6565 18.5717 52.6646 17.7858 52.6646 16.2424C52.6646 14.84 51.5443 14.0809 49.4461 14.0809H46.0301V18.5717ZM49.3876 26.2365H46.0286H46.027V21.9422H49.4145C51.7102 21.9422 52.8589 22.4477 52.8589 24.0466C52.8589 25.7881 51.3753 26.2365 49.3876 26.2365Z" fill="black"/>
<path d="M59.4965 10.6755C59.4965 9.32699 60.6167 8.20508 61.9597 8.20508C63.3027 8.20508 64.3945 9.32857 64.3945 10.6755C64.3945 12.0509 63.3027 13.1459 61.9597 13.1459C60.6167 13.1475 59.4965 12.0509 59.4965 10.6755Z" fill="black"/>
<rect x="59.9594" y="15.708" width="3.97528" height="13.9003" fill="black"/>
<path d="M68.9054 24.1053V19.0789H66.3584V15.7084H68.9054V12.1699H72.8806V15.7084H77.7802V19.0789H72.8806V23.9928C72.8806 25.5378 73.8034 26.4362 75.2601 26.4362C76.0707 26.4362 77.1071 26.1827 77.7786 25.7612V29.3266C77.0787 29.7766 75.8747 30.0001 74.8951 30.0001C70.893 30.0001 68.9054 27.5851 68.9054 24.1053Z" fill="black"/>
<path d="M80.7001 29.607V10.7104H84.7875V18.3198H93.3812V10.7104H97.4686V29.607H93.3812V22.0817H84.7875V29.607H80.7001Z" fill="#00D091"/>
<path fill-rule="evenodd" clip-rule="evenodd" d="M107.352 15.2866C103.123 15.2866 99.8481 18.6001 99.8481 22.6139C99.8481 26.6578 103.095 29.9713 107.352 29.9713C111.606 29.9713 114.882 26.6578 114.882 22.6139C114.882 18.6286 111.635 15.2866 107.352 15.2866ZM107.352 19.0485C109.394 19.0485 110.907 20.6791 110.907 22.644C110.907 24.6089 109.394 26.2363 107.352 26.2379C105.307 26.2379 103.823 24.6089 103.823 22.644C103.823 20.6775 105.307 19.0485 107.352 19.0485Z" fill="#00D091"/>
<path d="M141.506 22.3354V29.6072H137.531V23.0088C137.531 20.8744 136.607 19.079 134.423 19.079C132.268 19.079 131.342 20.8474 131.342 22.9534V29.6088H127.369V22.9819C127.369 20.8474 126.444 19.079 124.288 19.079C122.077 19.079 121.208 20.8759 121.208 22.9819V29.6088H117.233V22.337C117.233 18.461 119.502 15.2046 123.979 15.2046C126.64 15.2046 128.571 16.3835 129.385 18.293C130.25 16.3835 132.211 15.2046 134.701 15.2046C139.209 15.203 141.506 18.4594 141.506 22.3354Z" fill="#00D091"/>
<path fill-rule="evenodd" clip-rule="evenodd" d="M151.057 15.2012C146.774 15.2012 143.861 18.5146 143.861 22.53C143.861 26.9685 147.111 29.9714 151.421 29.9698C154.361 29.9698 156.657 28.5373 157.861 26.0384L154.808 24.495C154.164 25.7864 152.906 26.5169 151.392 26.5169C149.405 26.5169 147.978 25.2793 147.697 23.4269H158V22.248C158 18.4576 155.453 15.2012 151.057 15.2012ZM151.029 18.6842C152.709 18.6842 153.886 19.7791 154.052 21.2116H147.866C148.146 19.8077 149.293 18.6842 151.029 18.6842Z" fill="#00D091"/>
<path d="M1.4773 29.623C0.59092 29.623 0 29.0303 0 28.1414V20.4401C0 19.5511 0.59092 18.9585 1.4773 18.9585H9.1561C10.0425 18.9585 10.6334 19.5511 10.6334 20.4401V28.1414C10.6334 29.0303 10.0425 29.623 9.1561 29.623H1.4773Z" fill="#00D091"/>
<path d="M32.3126 12.7546L32.3015 12.7467C32.2999 12.7451 32.2983 12.7435 32.2968 12.7435L14.2958 0.313754C14.0098 0.115677 13.6638 0 13.2909 0C12.3113 0 11.5182 0.795479 11.5182 1.77794V15.9967C11.5182 16.8857 12.1091 17.4783 12.9955 17.4783H15.3592H20.6759C21.7392 17.4783 22.4486 18.1898 22.4486 19.2563V28.1428C22.4486 29.0318 23.0395 29.6244 23.9259 29.6244H31.6047C32.4911 29.6244 33.082 29.0318 33.082 28.1428V14.2188C33.0805 13.6119 32.7771 13.0763 32.3126 12.7546Z" fill="#00D091"/>
</svg>
